-------------------------------------------------------------------------------
Test set: com.friday.addressParser.service.ParseAddressServiceTest
-------------------------------------------------------------------------------
Tests run: 6, Failures: 0, Errors: 0, Skipped: 0, Time elapsed: 0.021 s - in com.friday.addressParser.service.ParseAddressServiceTest
