-------------------------------------------------------------------------------
Test set: com.friday.addressParser.exception.CustomExceptionHandlerTest
-------------------------------------------------------------------------------
Tests run: 3, Failures: 0, Errors: 0, Skipped: 0, Time elapsed: 0 s - in com.friday.addressParser.exception.CustomExceptionHandlerTest
